PROVINCE    P INCOME    MEMBER  MEMBER INCOME
    01     $505,332,054   10       $999,447
    02     $497,981,387   64       $996,625
    03     $510,299,639   40       $998,906
    04     $498,262,339   44       $998,921
    05     $503,361,695   63       $998,773
    06     $499,555,724   80       $997,650
    07     $505,201,982   55       $999,493
    08     $512,239,271   92       $999,730
    09     $507,319,888   11       $998,499
    10     $494,224,980   83       $996,316
    11     $501,269,132   11       $998,194
    12     $485,631,002   63       $997,155
    13     $508,303,378   99       $999,917
    14     $501,709,231   45       $999,776
    15     $492,127,685   14       $999,659
    16     $503,873,959   71       $999,162
    17     $504,027,032   03       $997,633
    18     $496,462,209   08       $998,707
    19     $493,658,551   97       $996,085
    20     $503,233,650   08       $999,562
    21     $492,861,844   81       $998,291
    22     $510,770,395   30       $999,715
    23     $500,883,527   50       $998,543
    24     $498,958,922   55       $997,745
    25     $506,765,027   67       $999,483
    26     $508,726,335   21       $999,820
    27     $492,973,151   41       $999,726
    28     $504,350,077   01       $998,284
    29     $508,539,285   76       $998,575
    30     $484,922,496   14       $997,534
    31     $494,507,044   66       $999,678
    32     $488,645,577   96       $999,815
    33     $504,199,013   89       $998,447
    34     $503,446,313   00       $998,452
    35     $501,340,496   21       $998,391
    36     $488,869,676   20       $998,499
    37     $500,645,031   79       $998,152
    38     $513,790,331   17       $998,738
    39     $498,056,216   47       $999,117
    40     $487,357,916   26       $998,180
    41     $505,251,563   70       $999,444
    42     $501,266,522   40       $999,927
    43     $517,011,722   06       $997,613
    44     $499,170,144   84       $999,506
    45     $495,145,277   77       $997,559
    46     $489,194,059   23       $998,614
    47     $503,133,360   27       $997,010
    48     $510,771,967   09       $998,508
    49     $487,907,255   29       $999,157
    50     $495,082,874   92       $995,557
    51     $509,900,971   79       $999,310
    52     $499,098,040   25       $999,078
    53     $502,792,159   01       $997,558
    54     $502,211,433   03       $999,826
    55     $495,818,705   06       $999,985
    56     $517,752,554   13       $998,349
    57     $497,250,806   34       $998,184
    58     $502,640,437   39       $999,190
    59     $506,367,443   82       $999,825
    60     $495,437,389   01       $998,141
    61     $503,862,141   85       $999,387
    62     $505,019,225   05       $996,608
    63     $502,033,355   29       $999,872
    64     $516,558,259   71       $999,852
    65     $504,457,005   40       $999,483
    66     $502,124,928   42       $999,514
    67     $505,530,011   64       $995,811
    68     $489,400,871   37       $998,656
    69     $510,610,080   20       $998,460
    70     $494,757,229   57       $999,509
    71     $502,110,805   87       $999,653
    72     $497,466,948   00       $999,266
    73     $496,923,131   58       $996,764
    74     $511,385,622   42       $999,383
    75     $495,242,861   93       $997,935
    76     $490,418,021   14       $997,596
    77     $508,936,533   54       $999,464
MAX PROVINCE: 56  SUM INCOME:  $517,752,554
